<svg xmlns="http://www.w3.org/2000/svg" xmlns:xlink="http://www.w3.org/1999/xlink" width="59.487" height="60.937" viewBox="0 0 59.487 60.937">
  <defs>
    <filter id="Path_167" x="0" y="0" width="59.487" height="60.937" filterUnits="userSpaceOnUse">
      <feOffset dy="3" input="SourceAlpha"/>
      <feGaussianBlur stdDeviation="3" result="blur"/>
      <feFlood flood-opacity="0.161"/>
      <feComposite operator="in" in2="blur"/>
      <feComposite in="SourceGraphic"/>
    </filter>
  </defs>
  <g id="Group_118" data-name="Group 118" transform="translate(-166.5 -67.5)">
    <g transform="matrix(1, 0, 0, 1, 166.5, 67.5)" filter="url(#Path_167)">
      <path id="Path_167-2" data-name="Path 167" d="M471.2,3c-3.417,2.216-7.706,4.133-12.639,3.089a19.139,19.139,0,0,1-10.1-6.223A24.682,24.682,0,0,1,442.836-11.6c-1.255-5.3-1.718-10.8.172-16.09a11.384,11.384,0,0,1,5.529-6c5.862-3.249,12.064-3.477,18.39-1.987,5.31,1.251,10.047,3.757,13.176,8.294,3.9,5.651,3.875,11.811,1.443,18.086C479.6-4.277,476.112-.54,471.2,3Z" transform="translate(-432.74 42.56)" fill="#f5c25b"/>
    </g>
    <g id="Component_37_16" data-name="Component 37 – 16" transform="translate(185.651 83)">
      <circle id="Ellipse_18" data-name="Ellipse 18" cx="6.116" cy="6.116" r="6.116" transform="translate(4.233 4.233)" fill="none" stroke="#fff" stroke-miterlimit="10" stroke-width="1"/>
      <circle id="Ellipse_19" data-name="Ellipse 19" cx="1.331" cy="1.331" r="1.331" transform="matrix(0.006, -1, 1, 0.006, 15.755, 4.602)" fill="#fff"/>
      <rect id="Rectangle_106" data-name="Rectangle 106" width="20.698" height="20.698" rx="4.252" fill="none" stroke="#fff" stroke-miterlimit="10" stroke-width="1"/>
    </g>
  </g>
</svg>
