<svg xmlns="http://www.w3.org/2000/svg" width="25" height="25" viewBox="0 0 25 25">
  <g id="Group_147" data-name="Group 147" transform="translate(-82 -415)">
    <circle id="Ellipse_20" data-name="Ellipse 20" cx="12.5" cy="12.5" r="12.5" transform="translate(82 415)" fill="#d38074" /> 
    <text id="_" data-name="+" transform="translate(83 416)" fill="#fff" font-size="18"  font-weight="700"><tspan x="6.363" y="19">+</tspan></text>
  </g>
</svg>
