<svg xmlns="http://www.w3.org/2000/svg" width="19.12" height="19.656" viewBox="0 0 19.12 19.656" fill="black">
  <path id="Path_237" data-name="Path 237" d="M19.135,12.791a7.659,7.659,0,0,0,.069-.963,7.659,7.659,0,0,0-.069-.963l2.074-1.622a.5.5,0,0,0,.118-.629l-1.966-3.4a.491.491,0,0,0-.432-.246A.459.459,0,0,0,18.762,5l-2.447.983a7.18,7.18,0,0,0-1.661-.963l-.373-2.6A.479.479,0,0,0,13.8,2H9.867a.479.479,0,0,0-.482.413l-.373,2.6a7.551,7.551,0,0,0-1.661.963L4.9,5a.557.557,0,0,0-.177-.029.487.487,0,0,0-.423.246l-1.966,3.4a.485.485,0,0,0,.118.629L4.53,10.865a7.794,7.794,0,0,0-.069.963,7.794,7.794,0,0,0,.069.963L2.457,14.413a.5.5,0,0,0-.118.629l1.966,3.4a.491.491,0,0,0,.432.246.459.459,0,0,0,.167-.029l2.447-.983a7.181,7.181,0,0,0,1.661.963l.373,2.6a.479.479,0,0,0,.482.413H13.8a.479.479,0,0,0,.482-.413l.373-2.6a7.551,7.551,0,0,0,1.661-.963l2.447.983a.557.557,0,0,0,.177.029.487.487,0,0,0,.423-.246l1.966-3.4a.5.5,0,0,0-.118-.629Zm-1.946-1.681a5.251,5.251,0,0,1,.049.717c0,.206-.02.423-.049.717l-.138,1.111.875.688,1.061.826L18.3,16.359l-1.248-.5-1.022-.413-.885.668a5.756,5.756,0,0,1-1.229.717l-1.042.423-.157,1.111-.2,1.327H11.145l-.187-1.327L10.8,17.253l-1.042-.423a5.576,5.576,0,0,1-1.209-.7l-.894-.688-1.042.423-1.248.5-.688-1.189,1.061-.826.875-.688-.138-1.111c-.029-.3-.049-.531-.049-.727s.02-.423.049-.717L6.614,10l-.875-.688L4.678,8.487,5.366,7.3l1.248.5,1.022.413.885-.668a5.756,5.756,0,0,1,1.229-.717L10.791,6.4l.157-1.111.2-1.327h1.366L12.7,5.292,12.855,6.4l1.042.423a5.576,5.576,0,0,1,1.209.7L16,8.211l1.042-.423,1.248-.5.688,1.189-1.052.835L17.051,10l.138,1.111ZM11.833,7.9a3.931,3.931,0,1,0,3.931,3.931A3.93,3.93,0,0,0,11.833,7.9Zm0,5.9A1.966,1.966,0,1,1,13.8,11.828,1.971,1.971,0,0,1,11.833,13.794Z" transform="translate(-2.271 -2)"/>
</svg>
