<svg xmlns="http://www.w3.org/2000/svg" width="30" height="30" viewBox="0 0 30 30">
  <g id="Group_390" data-name="Group 390" transform="translate(0.204)">
    <g id="Group_196" data-name="Group 196" transform="translate(0)">
      <circle id="Ellipse_53" data-name="Ellipse 53" cx="15" cy="15" r="15" transform="translate(-0.204)" fill="#d38074"/>
      <path id="pencil124" d="M101.187,88.455l-2.252-2.377h0L96.682,83.7a.624.624,0,0,0-.916,0l-10.9,11.511a.7.7,0,0,0-.176.345l-1.172,5.994a.709.709,0,0,0,.176.622.631.631,0,0,0,.458.2.616.616,0,0,0,.131-.014l5.678-1.238a.638.638,0,0,0,.327-.186l10.9-11.511A.711.711,0,0,0,101.187,88.455ZM85.711,97.073l2.807,2.963-3.537.771Zm4.114,2.409-3.59-3.789,9.988-10.544L97.56,86.56l-6.044,6.381a.711.711,0,0,0,0,.967.624.624,0,0,0,.916,0l6.044-6.381,1.337,1.411Z" transform="translate(-77.19 -78.147)" fill="#fff"/>
    </g>
  </g>
</svg>
