<svg xmlns="http://www.w3.org/2000/svg" width="19.656" height="19.656" viewBox="0 0 19.656 19.656" fill="black">
  <path id="Path_229" data-name="Path 229" d="M10.845,17.725h1.966V15.759H10.845ZM11.828,2a9.828,9.828,0,1,0,9.828,9.828A9.832,9.832,0,0,0,11.828,2Zm0,17.691a7.862,7.862,0,1,1,7.862-7.862A7.873,7.873,0,0,1,11.828,19.691Zm0-13.759A3.93,3.93,0,0,0,7.9,9.862H9.862a1.966,1.966,0,1,1,3.931,0c0,1.966-2.948,1.72-2.948,4.914h1.966c0-2.211,2.948-2.457,2.948-4.914A3.93,3.93,0,0,0,11.828,5.931Z" transform="translate(-2 -2)"/>
</svg>
