<svg xmlns="http://www.w3.org/2000/svg" width="81" height="27" viewBox="0 0 81 27">
  <text id="Hello" fill="rgba(255,255,255,0.5)" font-size="20"  font-weight="700"><tspan x="15.000" y="22">HELLO</tspan></text>
</svg>
